epoch,time(s),train_loss,train_acc,test_loss,test_acc(%)
001,00023,3.362423,0.1112,3.379720,0.1820
002,00037,2.914116,0.2291,3.050974,0.2476
003,00047,2.446499,0.3094,2.739951,0.3105
004,00047,2.197863,0.3841,2.619762,0.3385
005,00048,1.999725,0.4411,2.302912,0.4057
006,00047,1.811273,0.4865,1.951991,0.4723
007,00047,1.687407,0.5236,1.837518,0.4973
008,00047,1.574159,0.5544,1.971823,0.4788
009,00048,1.476205,0.5788,1.830615,0.5077
010,00047,1.372820,0.6001,1.704176,0.5365
011,00047,1.292948,0.6231,1.666601,0.5468
012,00047,1.269576,0.6366,1.631914,0.5515
013,00047,1.175538,0.6548,1.639699,0.5547
014,00048,1.179169,0.6686,1.544256,0.5770
015,00047,1.133608,0.6798,1.581076,0.5695
016,00047,1.045769,0.6930,1.489797,0.5923
017,00047,1.035075,0.7032,1.584500,0.5787
018,00048,0.956748,0.7138,1.526716,0.5924
019,00047,0.980283,0.7248,1.535376,0.5878
020,00047,0.879468,0.7337,1.524448,0.5951
021,00047,0.861767,0.7440,1.505916,0.6061
022,00047,0.834675,0.7529,1.554131,0.5944
023,00048,0.819248,0.7564,1.624630,0.5869
024,00047,0.810879,0.7660,1.519216,0.6073
025,00047,0.808423,0.7692,1.461855,0.6207
026,00047,0.734121,0.7761,1.526043,0.6154
027,00048,0.730087,0.7832,1.694583,0.5828
028,00047,0.720038,0.7892,1.463690,0.6290
029,00047,0.682555,0.7953,1.541663,0.6144
030,00047,0.711720,0.8004,1.543221,0.6208
031,00047,0.703416,0.8043,1.628895,0.6030
032,00062,0.688643,0.8075,1.605014,0.6107
033,00074,0.616543,0.8146,1.532859,0.6128
034,00077,0.632596,0.8168,1.657733,0.6033
035,00077,0.657814,0.8230,1.504520,0.6352
036,00077,0.602430,0.8248,1.634725,0.6132
037,00078,0.582416,0.8312,1.649286,0.6037
038,00077,0.600167,0.8300,1.677223,0.6037
039,00077,0.569895,0.8335,1.662540,0.6217
040,00077,0.535855,0.8372,1.534905,0.6326
041,00077,0.565997,0.8439,1.582192,0.6246
042,00078,0.539367,0.8468,1.600387,0.6232
043,00076,0.536966,0.8469,1.594065,0.6289
044,00077,0.536688,0.8489,1.671183,0.6166
045,00077,0.496164,0.8511,1.607673,0.6297
046,00077,0.513585,0.8517,1.605897,0.6309
047,00077,0.477362,0.8568,1.636117,0.6288
048,00078,0.524973,0.8629,1.738228,0.6200
049,00077,0.473549,0.8636,1.699595,0.6283
050,00076,0.474527,0.8649,1.770337,0.6199
051,00077,0.463254,0.8671,1.629583,0.6254
052,00077,0.473079,0.8665,1.792306,0.6201
053,00078,0.423417,0.8693,1.709949,0.6301
054,00077,0.422672,0.8698,1.773134,0.6101
055,00077,0.412193,0.8761,1.617983,0.6353
056,00077,0.462348,0.8716,1.670739,0.6254
057,00077,0.434100,0.8781,1.665734,0.6252
058,00077,0.393700,0.8760,1.801095,0.6138
059,00077,0.432303,0.8789,1.758377,0.6179
060,00077,0.387038,0.8811,1.727339,0.6226
061,00077,0.401866,0.8823,1.853288,0.6133
062,00073,0.439354,0.8850,1.631692,0.6398
063,00077,0.404271,0.8864,1.793738,0.6183
064,00076,0.403562,0.8819,1.798294,0.6229
065,00079,0.387560,0.8860,1.653036,0.6314
066,00079,0.391053,0.8921,1.730904,0.6288
067,00079,0.375642,0.8893,1.669072,0.6322
068,00079,0.365334,0.8906,1.749048,0.6353
069,00080,0.376049,0.8888,1.753179,0.6271
070,00079,0.386866,0.8879,1.721093,0.6346
071,00080,0.411224,0.8945,1.717659,0.6295
072,00079,0.321697,0.8949,1.731576,0.6342
073,00079,0.376162,0.8956,1.832544,0.6237
074,00080,0.367377,0.8961,1.781138,0.6164
075,00080,0.349134,0.8952,1.722000,0.6382
076,00079,0.363476,0.8973,1.842925,0.6159
077,00079,0.358454,0.8981,1.763289,0.6359
078,00079,0.350415,0.8995,1.668939,0.6389
079,00080,0.340136,0.8971,1.730257,0.6323
080,00079,0.326705,0.8995,1.697554,0.6392
081,00079,0.378911,0.8981,1.676931,0.6350
082,00079,0.337972,0.9001,1.827931,0.6277
083,00079,0.374872,0.9009,1.702720,0.6367
084,00079,0.329691,0.9009,1.828056,0.6181
085,00080,0.316561,0.9021,1.736712,0.6382
086,00079,0.322296,0.9050,1.815167,0.6304
087,00079,0.314533,0.9023,1.713311,0.6376
088,00079,0.325714,0.9046,1.763405,0.6297
089,00079,0.317995,0.9044,1.857832,0.6176
090,00081,0.295687,0.9073,1.744035,0.6382
091,00079,0.324464,0.9064,1.705130,0.6405
092,00078,0.293873,0.9060,1.761072,0.6326
093,00079,0.291985,0.9098,1.770913,0.6327
094,00078,0.342889,0.9089,1.821382,0.6328
095,00073,0.339275,0.9044,1.801981,0.6313
096,00080,0.334971,0.9064,1.831626,0.6253
097,00079,0.339938,0.9048,1.859964,0.6225
098,00072,0.317837,0.9053,1.743309,0.6256
099,00080,0.314123,0.9059,1.705473,0.6385
100,00081,0.297143,0.9113,1.700316,0.6410
101,00081,0.099782,0.9617,1.408261,0.6931
102,00082,0.074489,0.9785,1.394483,0.6965
103,00081,0.061081,0.9837,1.392737,0.6945
104,00082,0.065741,0.9860,1.392331,0.6974
105,00080,0.061630,0.9882,1.395790,0.6967
106,00082,0.055971,0.9894,1.397599,0.6989
107,00080,0.047415,0.9911,1.412978,0.6959
108,00081,0.043884,0.9924,1.408584,0.6969
109,00081,0.040735,0.9924,1.406981,0.6982
110,00082,0.038168,0.9934,1.410664,0.6976
111,00080,0.034756,0.9936,1.422922,0.6997
112,00081,0.037503,0.9943,1.425940,0.6992
113,00081,0.031013,0.9949,1.421783,0.6983
114,00081,0.036759,0.9953,1.429965,0.7002
115,00081,0.029002,0.9953,1.432788,0.6991
116,00082,0.029961,0.9956,1.433387,0.7017
117,00080,0.031895,0.9957,1.439762,0.6993
118,00081,0.028500,0.9962,1.441142,0.6992
119,00081,0.027585,0.9958,1.443809,0.7032
120,00081,0.026324,0.9965,1.438093,0.7001
121,00082,0.025379,0.9964,1.444069,0.6988
122,00081,0.026523,0.9967,1.445376,0.7020
123,00080,0.023529,0.9970,1.446405,0.7011
124,00081,0.031394,0.9969,1.457256,0.6997
125,00081,0.026720,0.9970,1.453244,0.6998
126,00082,0.026232,0.9979,1.454804,0.7018
127,00082,0.024739,0.9974,1.458512,0.7039
128,00080,0.023230,0.9974,1.462194,0.7013
129,00081,0.025753,0.9979,1.461850,0.7024
130,00080,0.022493,0.9976,1.466538,0.7013
131,00080,0.024840,0.9977,1.461734,0.7007
132,00071,0.018545,0.9979,1.462986,0.7016
133,00082,0.019359,0.9981,1.461754,0.7005
134,00081,0.019941,0.9982,1.467381,0.7009
135,00079,0.019976,0.9981,1.466724,0.6999
136,00072,0.021908,0.9981,1.464416,0.6989
137,00084,0.020698,0.9983,1.466648,0.7025
138,00083,0.019692,0.9982,1.464199,0.7006
139,00082,0.017429,0.9985,1.468062,0.6994
140,00082,0.019818,0.9984,1.471591,0.6994
141,00082,0.018645,0.9986,1.474334,0.6998
142,00083,0.016128,0.9988,1.474291,0.6994
143,00083,0.017964,0.9983,1.476627,0.6983
144,00083,0.016178,0.9986,1.474272,0.7014
145,00082,0.016058,0.9984,1.472250,0.6997
146,00082,0.015242,0.9986,1.473378,0.7005
147,00083,0.017811,0.9987,1.482484,0.6990
148,00082,0.017668,0.9985,1.477563,0.7025
149,00083,0.015302,0.9988,1.476428,0.7000
150,00083,0.013829,0.9987,1.480088,0.6993
151,00082,0.016926,0.9988,1.479046,0.6979
152,00083,0.013294,0.9989,1.482256,0.6976
153,00082,0.015416,0.9992,1.481128,0.6992
154,00083,0.014370,0.9987,1.477253,0.7001
155,00083,0.014537,0.9988,1.480846,0.6988
156,00082,0.015982,0.9991,1.484448,0.6989
157,00083,0.017103,0.9990,1.479612,0.7001
158,00082,0.015113,0.9990,1.481265,0.7009
159,00082,0.014201,0.9992,1.479040,0.6998
160,00083,0.012064,0.9992,1.476982,0.7011
161,00083,0.012911,0.9990,1.476240,0.7017
162,00083,0.013949,0.9990,1.475073,0.6997
163,00082,0.016439,0.9993,1.477479,0.7004
164,00082,0.013469,0.9990,1.477780,0.7013
165,00082,0.012646,0.9991,1.478692,0.7004
166,00083,0.014121,0.9992,1.479341,0.7006
167,00084,0.011159,0.9993,1.483356,0.7000
168,00083,0.014787,0.9992,1.474005,0.7002
169,00082,0.013168,0.9992,1.481824,0.7007
170,00082,0.013021,0.9992,1.476762,0.7016
171,00081,0.013997,0.9991,1.483797,0.7019
172,00070,0.013124,0.9990,1.480794,0.7011
173,00083,0.013999,0.9992,1.478150,0.7004
174,00083,0.014580,0.9991,1.481256,0.7015
175,00083,0.012966,0.9988,1.482506,0.7001
176,00083,0.013932,0.9990,1.483399,0.6998
177,00074,0.012753,0.9991,1.486168,0.7000
178,00081,0.011583,0.9993,1.479330,0.6993
179,00083,0.013069,0.9992,1.485303,0.7008
180,00084,0.013947,0.9994,1.482440,0.7005
181,00084,0.013186,0.9992,1.481425,0.7010
182,00084,0.012185,0.9994,1.481701,0.7015
183,00085,0.014396,0.9993,1.481965,0.7011
184,00084,0.012834,0.9993,1.486107,0.7007
185,00084,0.013730,0.9992,1.482807,0.7001
186,00084,0.012024,0.9993,1.483404,0.7010
187,00083,0.013827,0.9993,1.479069,0.7009
188,00085,0.013828,0.9993,1.481498,0.7005
189,00084,0.013597,0.9993,1.481394,0.7013
190,00084,0.013595,0.9994,1.484286,0.7012
191,00085,0.011436,0.9995,1.479891,0.7017
192,00083,0.012330,0.9995,1.480675,0.7011
193,00084,0.010980,0.9993,1.478765,0.7018
194,00085,0.014069,0.9994,1.481772,0.7007
195,00084,0.012097,0.9993,1.481828,0.7014
196,00084,0.011162,0.9995,1.483302,0.7011
197,00084,0.012125,0.9994,1.480520,0.7015
198,00084,0.011771,0.9995,1.480278,0.7019
199,00084,0.011830,0.9993,1.479871,0.7018
200,00084,0.013914,0.9993,1.478983,0.7002
