epoch,time(s),train_loss,train_acc,test_loss,test_acc(%)
001,00334,5.868271,0.0981,3.742337,0.1403
002,00320,5.303151,0.2062,3.214661,0.2232
003,00304,4.728719,0.3136,2.727649,0.2930
004,00313,4.353013,0.4044,2.213916,0.4181
005,00307,4.121765,0.4706,2.146575,0.4258
006,00317,4.022763,0.5178,2.161615,0.4366
007,00331,3.828747,0.5510,2.038810,0.4675
008,00323,3.776747,0.5783,1.653226,0.5379
009,00331,3.602633,0.6090,1.690654,0.5442
010,00322,3.604618,0.6313,1.620903,0.5594
011,00330,3.512986,0.6477,1.588822,0.5608
012,00325,3.481087,0.6687,1.543740,0.5866
013,00328,3.374221,0.6853,1.454353,0.5962
014,00325,3.341224,0.6987,1.632176,0.5712
015,00328,3.290373,0.7165,1.659272,0.5680
016,00295,3.245323,0.7272,1.447509,0.6125
017,00330,3.206375,0.7379,1.498650,0.5975
018,00298,3.189847,0.7472,1.496425,0.6108
019,00332,3.159656,0.7579,1.507205,0.6054
020,00326,3.156925,0.7651,1.546295,0.6051
021,00332,3.111904,0.7755,1.703813,0.5902
022,00327,3.087048,0.7788,1.688700,0.5865
023,00334,3.058202,0.7928,1.458657,0.6289
024,00327,2.971532,0.7953,1.431681,0.6395
025,00333,2.959147,0.8032,1.480452,0.6330
026,00330,2.978235,0.8132,1.578145,0.6286
027,00332,2.886219,0.8181,1.483475,0.6420
028,00326,2.894884,0.8218,1.522952,0.6332
029,00296,2.901816,0.8294,1.615039,0.6230
030,00330,2.874101,0.8331,1.591690,0.6317
031,00331,2.866602,0.8386,1.608337,0.6215
032,00303,2.868993,0.8409,1.522786,0.6301
033,00331,2.828034,0.8480,1.664448,0.6266
034,00336,2.821034,0.8536,1.537714,0.6438
035,00331,2.809448,0.8560,1.622360,0.6297
036,00334,2.822967,0.8578,1.686816,0.6277
037,00335,2.776078,0.8578,1.685611,0.6281
038,00331,2.781157,0.8623,1.625720,0.6312
039,00336,2.759410,0.8646,1.593299,0.6399
040,00330,2.774082,0.8665,1.683672,0.6310
041,00337,2.735542,0.8739,1.552623,0.6480
042,00329,2.765999,0.8736,1.565185,0.6460
043,00281,2.740192,0.8784,1.857630,0.6127
044,00247,2.741968,0.8778,1.810083,0.6256
045,00247,2.685628,0.8819,1.681769,0.6350
046,00222,2.692082,0.8862,1.591570,0.6411
047,00176,2.728661,0.8873,1.570644,0.6514
048,00170,2.686065,0.8868,1.582560,0.6506
049,00169,2.680386,0.8884,1.797873,0.6259
050,00169,2.704648,0.8900,1.675001,0.6333
051,00170,2.684111,0.8901,1.695661,0.6391
052,00170,2.688933,0.8935,1.758340,0.6408
053,00168,2.650882,0.8940,1.788352,0.6283
054,00170,2.675163,0.8961,1.703380,0.6366
055,00170,2.717752,0.8980,1.699374,0.6449
056,00170,2.658180,0.8963,1.725832,0.6385
057,00168,2.682477,0.8999,1.829864,0.6253
058,00170,2.639567,0.8992,1.716191,0.6432
059,00170,2.626157,0.9049,1.642600,0.6496
060,00168,2.654939,0.9002,1.765111,0.6389
061,00170,2.669596,0.9006,1.657522,0.6513
062,00170,2.632254,0.9056,1.724646,0.6452
063,00170,2.629795,0.9080,1.860158,0.6355
064,00168,2.661128,0.9058,1.879762,0.6356
065,00170,2.600062,0.9095,1.777844,0.6369
066,00170,2.643026,0.9073,1.825235,0.6305
067,00168,2.648115,0.9048,1.776602,0.6289
068,00170,2.609634,0.9088,1.776990,0.6323
069,00170,2.656349,0.9097,1.763471,0.6388
070,00170,2.645203,0.9089,1.728419,0.6488
071,00177,2.579984,0.9142,1.764056,0.6411
072,00185,2.615713,0.9122,1.667785,0.6439
073,00185,2.606625,0.9140,1.912116,0.6346
074,00180,2.631999,0.9094,1.670742,0.6467
075,00168,2.605173,0.9148,1.719167,0.6413
076,00170,2.621411,0.9139,1.773184,0.6565
077,00170,2.636671,0.9143,1.774634,0.6504
078,00168,2.627992,0.9145,1.792908,0.6376
079,00170,2.595185,0.9159,1.684427,0.6450
080,00170,2.595048,0.9233,1.751564,0.6428
081,00170,2.597884,0.9139,1.799519,0.6445
082,00170,2.575268,0.9175,1.653505,0.6529
083,00179,2.590599,0.9198,1.850513,0.6383
084,00179,2.614395,0.9164,1.708475,0.6626
085,00177,2.589738,0.9235,1.877346,0.6404
086,00169,2.610258,0.9169,1.858622,0.6426
087,00170,2.582841,0.9148,1.748743,0.6452
088,00170,2.593115,0.9209,1.791419,0.6502
089,00168,2.591717,0.9212,1.734667,0.6522
090,00170,2.606843,0.9199,1.795121,0.6473
091,00170,2.597605,0.9187,1.683094,0.6531
092,00170,2.594927,0.9220,1.798283,0.6415
093,00168,2.628496,0.9207,1.786602,0.6472
094,00170,2.576223,0.9222,1.728655,0.6461
095,00170,2.585409,0.9234,1.766830,0.6441
096,00168,2.588182,0.9163,1.752834,0.6477
097,00170,2.605442,0.9181,1.662070,0.6574
098,00170,2.573540,0.9229,1.767065,0.6468
099,00198,2.571878,0.9206,1.905245,0.6307
100,00286,2.591389,0.9200,1.879756,0.6402
101,00283,2.378013,0.9715,1.270470,0.7253
102,00282,2.347411,0.9896,1.261863,0.7286
103,00287,2.342354,0.9937,1.249832,0.7295
104,00285,2.335576,0.9946,1.254460,0.7330
105,00283,2.331781,0.9957,1.254900,0.7336
106,00285,2.325647,0.9968,1.262376,0.7355
107,00243,2.325645,0.9975,1.262041,0.7353
108,00230,2.328361,0.9976,1.266078,0.7365
109,00228,2.322885,0.9980,1.268343,0.7361
110,00228,2.324998,0.9983,1.273229,0.7355
111,00227,2.321856,0.9985,1.271780,0.7364
112,00228,2.318810,0.9985,1.272988,0.7374
113,00229,2.319913,0.9988,1.275229,0.7367
114,00229,2.319289,0.9985,1.275300,0.7362
115,00227,2.319149,0.9987,1.277167,0.7373
116,00222,2.317462,0.9991,1.276262,0.7385
117,00233,2.314902,0.9990,1.281325,0.7378
118,00231,2.317494,0.9990,1.283287,0.7373
119,00233,2.315292,0.9991,1.283010,0.7379
120,00233,2.315174,0.9990,1.284886,0.7367
121,00233,2.315207,0.9991,1.286942,0.7391
122,00232,2.317246,0.9991,1.290251,0.7369
123,00232,2.316463,0.9991,1.286569,0.7375
124,00232,2.313381,0.9992,1.289493,0.7393
125,00219,2.313894,0.9992,1.284282,0.7379
126,00229,2.315460,0.9992,1.289989,0.7367
127,00236,2.313518,0.9993,1.290349,0.7384
128,00237,2.313801,0.9994,1.288575,0.7391
129,00236,2.314744,0.9993,1.294701,0.7391
130,00237,2.312733,0.9994,1.290111,0.7380
131,00236,2.315299,0.9993,1.292112,0.7369
132,00237,2.311449,0.9994,1.297698,0.7380
133,00234,2.312489,0.9994,1.292014,0.7369
134,00237,2.314377,0.9995,1.297361,0.7365
135,00237,2.312083,0.9996,1.292924,0.7371
136,00210,2.311854,0.9994,1.298250,0.7372
137,00238,2.314794,0.9994,1.298658,0.7356
138,00241,2.312664,0.9994,1.295210,0.7367
139,00240,2.311548,0.9994,1.299294,0.7377
140,00238,2.312994,0.9995,1.296119,0.7362
141,00240,2.311195,0.9994,1.297020,0.7354
142,00241,2.311819,0.9996,1.298169,0.7370
143,00240,2.311564,0.9996,1.297795,0.7368
144,00238,2.310881,0.9995,1.298451,0.7355
145,00207,2.311243,0.9996,1.298568,0.7359
146,00143,2.310723,0.9995,1.297786,0.7370
147,00143,2.311470,0.9996,1.298476,0.7384
148,00113,2.311215,0.9995,1.300970,0.7368
149,00122,2.310746,0.9996,1.300449,0.7366
150,00145,2.311907,0.9995,1.297799,0.7362
151,00145,2.311106,0.9994,1.300175,0.7349
152,00144,2.312328,0.9996,1.295758,0.7373
153,00146,2.311089,0.9995,1.301299,0.7362
154,00143,2.311066,0.9996,1.298481,0.7373
155,00145,2.310428,0.9997,1.297823,0.7375
156,00145,2.310693,0.9996,1.298582,0.7385
157,00145,2.310112,0.9997,1.296688,0.7355
158,00145,2.311238,0.9996,1.300996,0.7385
159,00146,2.309784,0.9997,1.301343,0.7377
160,00145,2.309648,0.9995,1.298621,0.7366
161,00146,2.309769,0.9997,1.300946,0.7369
162,00145,2.310735,0.9996,1.296506,0.7375
163,00140,2.310693,0.9996,1.303719,0.7376
164,00089,2.309111,0.9997,1.299117,0.7373
165,00146,2.310306,0.9996,1.296486,0.7364
166,00148,2.310365,0.9995,1.299561,0.7354
167,00147,2.309889,0.9997,1.297291,0.7379
168,00147,2.310328,0.9997,1.301336,0.7373
169,00147,2.310441,0.9996,1.297749,0.7375
170,00147,2.309310,0.9996,1.297544,0.7382
171,00148,2.309274,0.9998,1.298763,0.7374
172,00146,2.310416,0.9997,1.301066,0.7358
173,00148,2.309019,0.9996,1.300226,0.7369
174,00146,2.310001,0.9998,1.298405,0.7370
175,00150,2.310545,0.9998,1.298531,0.7384
176,00151,2.308799,0.9996,1.294721,0.7361
177,00150,2.310125,0.9998,1.301612,0.7378
178,00149,2.309824,0.9997,1.301314,0.7376
179,00151,2.309068,0.9997,1.299149,0.7371
180,00099,2.309839,0.9997,1.299722,0.7376
181,00130,2.308617,0.9996,1.299038,0.7379
182,00153,2.309129,0.9996,1.300332,0.7363
183,00153,2.308955,0.9996,1.302709,0.7377
184,00153,2.309623,0.9998,1.297494,0.7365
185,00152,2.308976,0.9997,1.298580,0.7360
186,00153,2.310147,0.9997,1.298189,0.7380
187,00152,2.309961,0.9997,1.299513,0.7363
188,00154,2.309416,0.9997,1.300868,0.7370
189,00154,2.308999,0.9995,1.299028,0.7372
190,00154,2.309110,0.9997,1.298967,0.7379
191,00156,2.309254,0.9997,1.294029,0.7376
192,00155,2.308729,0.9997,1.295439,0.7376
193,00155,2.309597,0.9998,1.297010,0.7370
194,00155,2.308709,0.9997,1.298375,0.7386
195,00154,2.309174,0.9997,1.294553,0.7372
196,00131,2.309113,0.9997,1.296220,0.7368
197,00107,2.309138,0.9997,1.295273,0.7373
198,00158,2.308898,0.9997,1.294658,0.7370
199,00155,2.308133,0.9997,1.301469,0.7366
200,00156,2.308245,0.9997,1.300885,0.7369
