epoch,time(s),train_loss,train_acc,test_loss,test_acc(%)
001,00116,1.193348,0.4367,1.615902,0.4634
002,00110,0.895909,0.6356,0.950171,0.6740
003,00111,0.688724,0.7264,0.780494,0.7325
004,00109,0.593517,0.7801,0.746636,0.7503
005,00111,0.537117,0.8113,0.621837,0.7919
006,00109,0.486739,0.8341,0.618452,0.8019
007,00111,0.424003,0.8512,0.579973,0.8047
008,00109,0.389758,0.8637,0.509693,0.8275
009,00112,0.377783,0.8723,0.452443,0.8482
010,00109,0.348987,0.8827,0.513160,0.8364
011,00111,0.319744,0.8867,0.471993,0.8460
012,00110,0.286697,0.8957,0.470099,0.8471
013,00110,0.310828,0.9019,0.436146,0.8587
014,00110,0.321085,0.9060,0.428624,0.8603
015,00110,0.273336,0.9091,0.448741,0.8568
016,00078,0.292584,0.9154,0.425009,0.8606
017,00095,0.246108,0.9175,0.415482,0.8646
018,00111,0.221231,0.9205,0.455254,0.8630
019,00110,0.262868,0.9231,0.398587,0.8738
020,00111,0.222339,0.9261,0.435031,0.8611
021,00112,0.226576,0.9298,0.419197,0.8673
022,00112,0.185704,0.9327,0.428277,0.8663
023,00113,0.192739,0.9355,0.529559,0.8447
024,00112,0.213355,0.9364,0.402087,0.8793
025,00112,0.212996,0.9394,0.421183,0.8790
026,00111,0.173663,0.9408,0.346585,0.8946
027,00111,0.194663,0.9452,0.375013,0.8852
028,00111,0.167062,0.9453,0.434867,0.8798
029,00112,0.146993,0.9469,0.382241,0.8839
030,00112,0.158072,0.9475,0.390297,0.8847
031,00112,0.159483,0.9483,0.382820,0.8869
032,00112,0.143282,0.9493,0.436675,0.8762
033,00112,0.114458,0.9511,0.377195,0.8877
034,00111,0.158727,0.9525,0.394750,0.8840
035,00111,0.126738,0.9551,0.383417,0.8901
036,00111,0.138558,0.9558,0.397693,0.8884
037,00105,0.153288,0.9542,0.469380,0.8778
038,00067,0.140598,0.9553,0.403936,0.8886
039,00109,0.123357,0.9559,0.457350,0.8717
040,00113,0.143351,0.9600,0.393422,0.8888
041,00112,0.112667,0.9577,0.398028,0.8894
042,00114,0.134626,0.9598,0.373847,0.8935
043,00113,0.139506,0.9606,0.368606,0.8957
044,00112,0.116315,0.9590,0.443943,0.8830
045,00114,0.115178,0.9610,0.399134,0.8898
046,00113,0.126983,0.9602,0.382392,0.8940
047,00112,0.098662,0.9635,0.387836,0.8940
048,00114,0.118697,0.9635,0.375157,0.9032
049,00113,0.117054,0.9628,0.414769,0.8897
050,00112,0.133842,0.9623,0.402303,0.8927
051,00114,0.120489,0.9642,0.394788,0.8927
052,00112,0.108482,0.9643,0.387621,0.8949
053,00112,0.104193,0.9661,0.400297,0.8875
054,00114,0.101227,0.9632,0.429029,0.8893
055,00112,0.115571,0.9668,0.391042,0.8956
056,00112,0.102782,0.9640,0.441067,0.8914
057,00114,0.088496,0.9670,0.417038,0.8911
058,00112,0.137657,0.9675,0.458585,0.8856
059,00112,0.117370,0.9645,0.361325,0.8975
060,00097,0.130693,0.9640,0.353650,0.9041
061,00067,0.089481,0.9682,0.380867,0.8991
062,00060,0.085104,0.9678,0.375665,0.8962
063,00060,0.117099,0.9666,0.387188,0.8990
064,00060,0.080922,0.9689,0.383900,0.8974
065,00060,0.087885,0.9681,0.446748,0.8857
066,00060,0.115635,0.9660,0.410365,0.8979
067,00060,0.083576,0.9682,0.376114,0.9009
068,00060,0.101355,0.9711,0.412207,0.8967
069,00060,0.120824,0.9661,0.407590,0.8927
070,00060,0.102581,0.9677,0.409325,0.8966
071,00060,0.089468,0.9683,0.402164,0.8967
072,00060,0.122082,0.9693,0.386445,0.8996
073,00060,0.097256,0.9668,0.437124,0.8848
074,00060,0.081875,0.9689,0.384161,0.9007
075,00060,0.101901,0.9674,0.478845,0.8850
076,00060,0.086251,0.9681,0.398420,0.8962
077,00060,0.093506,0.9697,0.395327,0.9011
078,00060,0.097750,0.9694,0.402865,0.8974
079,00060,0.094902,0.9692,0.417324,0.8923
080,00060,0.092210,0.9703,0.423562,0.8943
081,00060,0.112772,0.9684,0.401230,0.8926
082,00060,0.084448,0.9704,0.429794,0.8970
083,00060,0.084739,0.9714,0.390603,0.8997
084,00060,0.075993,0.9723,0.355264,0.9053
085,00060,0.068014,0.9693,0.418888,0.8925
086,00060,0.122374,0.9703,0.454333,0.8882
087,00060,0.082123,0.9706,0.435905,0.8930
088,00060,0.103954,0.9710,0.395081,0.9015
089,00060,0.113209,0.9688,0.366831,0.9008
090,00060,0.087370,0.9708,0.509509,0.8733
091,00060,0.091120,0.9699,0.408912,0.8946
092,00060,0.091125,0.9720,0.399785,0.8915
093,00060,0.161312,0.9705,0.554127,0.8633
094,00060,0.087898,0.9656,0.399757,0.8934
095,00060,0.129675,0.9744,0.436496,0.8885
096,00060,0.131418,0.9680,0.397727,0.8983
097,00060,0.101311,0.9700,0.363847,0.9050
098,00060,0.090181,0.9693,0.398326,0.8948
099,00060,0.076748,0.9733,0.447779,0.8968
100,00060,0.079869,0.9715,0.450844,0.8891
101,00060,0.029532,0.9881,0.268712,0.9301
102,00060,0.016943,0.9944,0.262112,0.9327
103,00060,0.017121,0.9956,0.266507,0.9339
104,00060,0.008154,0.9969,0.269317,0.9340
105,00060,0.011151,0.9976,0.270465,0.9329
106,00060,0.010544,0.9977,0.271615,0.9356
107,00060,0.011197,0.9980,0.273953,0.9352
108,00060,0.006902,0.9980,0.272493,0.9359
109,00060,0.010892,0.9986,0.277913,0.9354
110,00060,0.015793,0.9988,0.277663,0.9350
111,00060,0.007306,0.9988,0.280173,0.9367
112,00060,0.010203,0.9988,0.281998,0.9357
113,00060,0.011907,0.9987,0.288319,0.9346
114,00060,0.013316,0.9989,0.287624,0.9366
115,00060,0.009349,0.9992,0.289774,0.9351
116,00060,0.005509,0.9992,0.289008,0.9371
117,00060,0.012868,0.9991,0.289492,0.9372
118,00060,0.006694,0.9994,0.296725,0.9359
119,00061,0.012465,0.9993,0.294443,0.9357
120,00060,0.003832,0.9994,0.296279,0.9354
121,00061,0.006125,0.9992,0.298506,0.9362
122,00060,0.003136,0.9994,0.297026,0.9360
123,00060,0.002392,0.9993,0.296906,0.9344
124,00060,0.011148,0.9994,0.298630,0.9350
125,00060,0.009646,0.9995,0.299635,0.9354
126,00060,0.003024,0.9995,0.300875,0.9358
127,00060,0.005195,0.9995,0.301961,0.9360
128,00060,0.006749,0.9994,0.303368,0.9360
129,00060,0.003196,0.9994,0.299898,0.9371
130,00060,0.002385,0.9996,0.298110,0.9364
131,00060,0.002739,0.9996,0.298150,0.9380
132,00060,0.002989,0.9995,0.305580,0.9365
133,00060,0.003890,0.9995,0.302641,0.9365
134,00060,0.002188,0.9994,0.307251,0.9358
135,00060,0.002399,0.9996,0.303509,0.9363
136,00060,0.002093,0.9996,0.303767,0.9361
137,00060,0.002295,0.9995,0.307090,0.9358
138,00060,0.002801,0.9998,0.303732,0.9368
139,00060,0.006986,0.9997,0.310422,0.9373
140,00060,0.003095,0.9997,0.309633,0.9353
141,00060,0.001569,0.9996,0.308315,0.9366
142,00060,0.003617,0.9996,0.313545,0.9366
143,00060,0.001405,0.9998,0.313646,0.9367
144,00060,0.001807,0.9996,0.313631,0.9372
145,00060,0.002739,0.9996,0.317489,0.9349
146,00060,0.005360,0.9995,0.313696,0.9367
147,00060,0.001798,0.9998,0.316168,0.9362
148,00061,0.001471,0.9998,0.315310,0.9357
149,00060,0.004700,0.9997,0.317886,0.9366
150,00060,0.002555,0.9998,0.324020,0.9366
151,00061,0.003136,0.9997,0.318379,0.9346
152,00060,0.002548,0.9998,0.318159,0.9350
153,00060,0.002056,0.9998,0.319823,0.9359
154,00060,0.004888,0.9998,0.314450,0.9361
155,00060,0.000989,0.9999,0.315047,0.9366
156,00060,0.001639,0.9998,0.318549,0.9363
157,00060,0.002060,0.9999,0.319303,0.9368
158,00061,0.001609,0.9998,0.320972,0.9364
159,00060,0.001599,0.9998,0.322282,0.9355
160,00060,0.002051,0.9998,0.322481,0.9354
161,00060,0.004118,0.9997,0.317463,0.9365
162,00060,0.001057,0.9999,0.318219,0.9357
163,00061,0.002462,0.9999,0.316444,0.9366
164,00065,0.001195,0.9999,0.318932,0.9369
165,00065,0.001632,0.9999,0.316051,0.9370
166,00065,0.001427,0.9999,0.319471,0.9373
167,00063,0.002367,0.9999,0.320910,0.9368
168,00060,0.001682,0.9998,0.321354,0.9376
169,00060,0.003144,0.9999,0.320364,0.9364
170,00060,0.001283,0.9998,0.316648,0.9366
171,00060,0.007047,0.9998,0.324207,0.9373
172,00060,0.003971,0.9998,0.322246,0.9370
173,00060,0.001198,0.9999,0.320189,0.9361
174,00060,0.004834,0.9998,0.323127,0.9361
175,00060,0.002702,0.9999,0.317038,0.9374
176,00060,0.001100,0.9998,0.319545,0.9379
177,00060,0.001667,0.9997,0.320399,0.9371
178,00060,0.001233,0.9998,0.321062,0.9370
179,00060,0.001483,0.9999,0.319791,0.9374
180,00060,0.001523,0.9999,0.315817,0.9379
181,00060,0.001097,0.9999,0.318875,0.9368
182,00060,0.001020,0.9999,0.321707,0.9373
183,00060,0.001984,0.9999,0.320533,0.9375
184,00060,0.001144,0.9999,0.316717,0.9376
185,00060,0.003394,0.9999,0.321038,0.9376
186,00060,0.001583,0.9999,0.318115,0.9370
187,00062,0.001615,1.0000,0.320459,0.9375
188,00073,0.001002,0.9999,0.321038,0.9363
189,00074,0.001182,0.9999,0.320506,0.9371
190,00073,0.001112,0.9999,0.323290,0.9364
191,00073,0.003808,0.9998,0.321399,0.9374
192,00073,0.000815,0.9998,0.324019,0.9364
193,00074,0.000993,0.9999,0.319596,0.9362
194,00075,0.001825,0.9999,0.322691,0.9367
195,00075,0.001200,0.9999,0.320920,0.9367
196,00075,0.001037,0.9999,0.323243,0.9368
197,00075,0.001350,0.9999,0.322191,0.9374
198,00075,0.000765,1.0000,0.321838,0.9369
199,00074,0.002083,0.9998,0.321140,0.9363
200,00074,0.001291,0.9999,0.318361,0.9360
